<?xml version="1.0" encoding="UTF-8"?>
<svg xmlns="http://www.w3.org/2000/svg" xmlns:xlink="http://www.w3.org/1999/xlink" width="708pt" height="657pt" viewBox="0 0 708 657" version="1.1">
<defs>
<g>
<symbol overflow="visible" id="glyph0-0">
<path style="stroke:none;" d="M 7.625 -15.9375 C 6.40625 -15.9375 5.488281 -15.335938 4.875 -14.140625 C 4.269531 -12.941406 3.96875 -11.140625 3.96875 -8.734375 C 3.96875 -6.335938 4.269531 -4.535156 4.875 -3.328125 C 5.488281 -2.128906 6.40625 -1.53125 7.625 -1.53125 C 8.851562 -1.53125 9.773438 -2.128906 10.390625 -3.328125 C 11.003906 -4.535156 11.3125 -6.335938 11.3125 -8.734375 C 11.3125 -11.140625 11.003906 -12.941406 10.390625 -14.140625 C 9.773438 -15.335938 8.851562 -15.9375 7.625 -15.9375 Z M 7.625 -17.8125 C 9.59375 -17.8125 11.09375 -17.035156 12.125 -15.484375 C 13.15625 -13.929688 13.671875 -11.679688 13.671875 -8.734375 C 13.671875 -5.785156 13.15625 -3.535156 12.125 -1.984375 C 11.09375 -0.429688 9.59375 0.34375 7.625 0.34375 C 5.664062 0.34375 4.164062 -0.429688 3.125 -1.984375 C 2.09375 -3.535156 1.578125 -5.785156 1.578125 -8.734375 C 1.578125 -11.679688 2.09375 -13.929688 3.125 -15.484375 C 4.164062 -17.035156 5.664062 -17.8125 7.625 -17.8125 Z M 7.625 -17.8125 "/>
</symbol>
<symbol overflow="visible" id="glyph1-0">
<path style="stroke:none;" d="M 8.9375 0 L 6.828125 0 L 6.828125 -13.4375 C 6.328125 -12.957031 5.660156 -12.472656 4.828125 -11.984375 C 4.003906 -11.503906 3.265625 -11.144531 2.609375 -10.90625 L 2.609375 -12.9375 C 3.796875 -13.488281 4.828125 -14.160156 5.703125 -14.953125 C 6.585938 -15.742188 7.210938 -16.507812 7.578125 -17.25 L 8.9375 -17.25 Z M 8.9375 0 "/>
</symbol>
<symbol overflow="visible" id="glyph1-1">
<path style="stroke:none;" d="M 12.078125 -2.03125 L 12.078125 0 L 0.734375 0 C 0.710938 -0.507812 0.789062 -1 0.96875 -1.46875 C 1.257812 -2.238281 1.722656 -3 2.359375 -3.75 C 2.992188 -4.5 3.914062 -5.367188 5.125 -6.359375 C 6.988281 -7.890625 8.25 -9.097656 8.90625 -9.984375 C 9.5625 -10.878906 9.890625 -11.726562 9.890625 -12.53125 C 9.890625 -13.363281 9.585938 -14.066406 8.984375 -14.640625 C 8.390625 -15.210938 7.613281 -15.5 6.65625 -15.5 C 5.644531 -15.5 4.832031 -15.191406 4.21875 -14.578125 C 3.613281 -13.972656 3.304688 -13.132812 3.296875 -12.0625 L 1.125 -12.28125 C 1.269531 -13.894531 1.828125 -15.125 2.796875 -15.96875 C 3.765625 -16.820312 5.066406 -17.25 6.703125 -17.25 C 8.347656 -17.25 9.648438 -16.789062 10.609375 -15.875 C 11.578125 -14.96875 12.0625 -13.835938 12.0625 -12.484375 C 12.0625 -11.796875 11.921875 -11.117188 11.640625 -10.453125 C 11.359375 -9.785156 10.890625 -9.082031 10.234375 -8.34375 C 9.585938 -7.613281 8.503906 -6.609375 6.984375 -5.328125 C 5.722656 -4.265625 4.910156 -3.546875 4.546875 -3.171875 C 4.191406 -2.796875 3.894531 -2.414062 3.65625 -2.03125 Z M 12.078125 -2.03125 "/>
</symbol>
<symbol overflow="visible" id="glyph1-2">
<path style="stroke:none;" d="M 1.015625 -4.53125 L 3.125 -4.8125 C 3.363281 -3.625 3.773438 -2.765625 4.359375 -2.234375 C 4.941406 -1.703125 5.648438 -1.4375 6.484375 -1.4375 C 7.472656 -1.4375 8.304688 -1.78125 8.984375 -2.46875 C 9.671875 -3.15625 10.015625 -4.007812 10.015625 -5.03125 C 10.015625 -6 9.695312 -6.796875 9.0625 -7.421875 C 8.4375 -8.054688 7.632812 -8.375 6.65625 -8.375 C 6.257812 -8.375 5.765625 -8.296875 5.171875 -8.140625 L 5.40625 -9.984375 C 5.539062 -9.972656 5.65625 -9.96875 5.75 -9.96875 C 6.644531 -9.96875 7.453125 -10.203125 8.171875 -10.671875 C 8.890625 -11.140625 9.25 -11.859375 9.25 -12.828125 C 9.25 -13.609375 8.984375 -14.25 8.453125 -14.75 C 7.929688 -15.257812 7.257812 -15.515625 6.4375 -15.515625 C 5.613281 -15.515625 4.925781 -15.253906 4.375 -14.734375 C 3.832031 -14.222656 3.484375 -13.453125 3.328125 -12.421875 L 1.21875 -12.796875 C 1.476562 -14.210938 2.0625 -15.304688 2.96875 -16.078125 C 3.882812 -16.859375 5.023438 -17.25 6.390625 -17.25 C 7.328125 -17.25 8.1875 -17.046875 8.96875 -16.640625 C 9.757812 -16.242188 10.363281 -15.695312 10.78125 -15 C 11.207031 -14.300781 11.421875 -13.5625 11.421875 -12.78125 C 11.421875 -12.039062 11.21875 -11.363281 10.8125 -10.75 C 10.414062 -10.144531 9.828125 -9.664062 9.046875 -9.3125 C 10.066406 -9.070312 10.859375 -8.582031 11.421875 -7.84375 C 11.984375 -7.101562 12.265625 -6.179688 12.265625 -5.078125 C 12.265625 -3.578125 11.71875 -2.300781 10.625 -1.25 C 9.53125 -0.207031 8.144531 0.3125 6.46875 0.3125 C 4.957031 0.3125 3.703125 -0.132812 2.703125 -1.03125 C 1.710938 -1.9375 1.148438 -3.101562 1.015625 -4.53125 Z M 1.015625 -4.53125 "/>
</symbol>
<symbol overflow="visible" id="glyph1-3">
<path style="stroke:none;" d="M 7.765625 0 L 7.765625 -4.109375 L 0.3125 -4.109375 L 0.3125 -6.046875 L 8.140625 -17.1875 L 9.875 -17.1875 L 9.875 -6.046875 L 12.1875 -6.046875 L 12.1875 -4.109375 L 9.875 -4.109375 L 9.875 0 Z M 7.765625 -6.046875 L 7.765625 -13.796875 L 2.375 -6.046875 Z M 7.765625 -6.046875 "/>
</symbol>
<symbol overflow="visible" id="glyph1-4">
<path style="stroke:none;" d="M 1 -4.5 L 3.21875 -4.6875 C 3.375 -3.613281 3.75 -2.800781 4.34375 -2.25 C 4.945312 -1.707031 5.671875 -1.4375 6.515625 -1.4375 C 7.535156 -1.4375 8.394531 -1.816406 9.09375 -2.578125 C 9.800781 -3.347656 10.15625 -4.367188 10.15625 -5.640625 C 10.15625 -6.835938 9.816406 -7.785156 9.140625 -8.484375 C 8.460938 -9.179688 7.578125 -9.53125 6.484375 -9.53125 C 5.804688 -9.53125 5.191406 -9.375 4.640625 -9.0625 C 4.097656 -8.757812 3.671875 -8.359375 3.359375 -7.859375 L 1.375 -8.125 L 3.03125 -16.953125 L 11.578125 -16.953125 L 11.578125 -14.9375 L 4.71875 -14.9375 L 3.796875 -10.3125 C 4.828125 -11.03125 5.910156 -11.390625 7.046875 -11.390625 C 8.546875 -11.390625 9.8125 -10.867188 10.84375 -9.828125 C 11.875 -8.796875 12.390625 -7.460938 12.390625 -5.828125 C 12.390625 -4.273438 11.9375 -2.929688 11.03125 -1.796875 C 9.925781 -0.398438 8.421875 0.296875 6.515625 0.296875 C 4.953125 0.296875 3.675781 -0.140625 2.6875 -1.015625 C 1.695312 -1.890625 1.132812 -3.050781 1 -4.5 Z M 1 -4.5 "/>
</symbol>
<symbol overflow="visible" id="glyph1-5">
<path style="stroke:none;" d="M 11.9375 -12.96875 L 9.84375 -12.8125 C 9.65625 -13.632812 9.390625 -14.234375 9.046875 -14.609375 C 8.472656 -15.210938 7.769531 -15.515625 6.9375 -15.515625 C 6.269531 -15.515625 5.679688 -15.328125 5.171875 -14.953125 C 4.503906 -14.472656 3.976562 -13.765625 3.59375 -12.828125 C 3.21875 -11.898438 3.019531 -10.578125 3 -8.859375 C 3.507812 -9.628906 4.128906 -10.203125 4.859375 -10.578125 C 5.597656 -10.953125 6.367188 -11.140625 7.171875 -11.140625 C 8.578125 -11.140625 9.773438 -10.625 10.765625 -9.59375 C 11.753906 -8.5625 12.25 -7.222656 12.25 -5.578125 C 12.25 -4.503906 12.015625 -3.503906 11.546875 -2.578125 C 11.085938 -1.648438 10.453125 -0.9375 9.640625 -0.4375 C 8.828125 0.0507812 7.90625 0.296875 6.875 0.296875 C 5.113281 0.296875 3.675781 -0.347656 2.5625 -1.640625 C 1.457031 -2.941406 0.90625 -5.078125 0.90625 -8.046875 C 0.90625 -11.359375 1.519531 -13.769531 2.75 -15.28125 C 3.8125 -16.59375 5.25 -17.25 7.0625 -17.25 C 8.414062 -17.25 9.523438 -16.867188 10.390625 -16.109375 C 11.253906 -15.359375 11.769531 -14.3125 11.9375 -12.96875 Z M 3.328125 -5.5625 C 3.328125 -4.84375 3.476562 -4.148438 3.78125 -3.484375 C 4.09375 -2.816406 4.523438 -2.304688 5.078125 -1.953125 C 5.640625 -1.609375 6.222656 -1.4375 6.828125 -1.4375 C 7.722656 -1.4375 8.488281 -1.796875 9.125 -2.515625 C 9.769531 -3.234375 10.09375 -4.210938 10.09375 -5.453125 C 10.09375 -6.640625 9.773438 -7.570312 9.140625 -8.25 C 8.503906 -8.9375 7.707031 -9.28125 6.75 -9.28125 C 5.800781 -9.28125 4.992188 -8.9375 4.328125 -8.25 C 3.660156 -7.570312 3.328125 -6.675781 3.328125 -5.5625 Z M 3.328125 -5.5625 "/>
</symbol>
<symbol overflow="visible" id="glyph1-6">
<path style="stroke:none;" d="M 1.140625 -14.9375 L 1.140625 -16.953125 L 12.265625 -16.953125 L 12.265625 -15.3125 C 11.171875 -14.15625 10.082031 -12.609375 9 -10.671875 C 7.925781 -8.742188 7.097656 -6.757812 6.515625 -4.71875 C 6.097656 -3.28125 5.828125 -1.707031 5.703125 0 L 3.546875 0 C 3.566406 -1.351562 3.828125 -2.984375 4.328125 -4.890625 C 4.835938 -6.804688 5.566406 -8.65625 6.515625 -10.4375 C 7.472656 -12.21875 8.484375 -13.71875 9.546875 -14.9375 Z M 1.140625 -14.9375 "/>
</symbol>
<symbol overflow="visible" id="glyph1-7">
<path style="stroke:none;" d="M 4.25 -9.3125 C 3.375 -9.632812 2.722656 -10.09375 2.296875 -10.6875 C 1.878906 -11.28125 1.671875 -11.992188 1.671875 -12.828125 C 1.671875 -14.078125 2.117188 -15.125 3.015625 -15.96875 C 3.910156 -16.820312 5.101562 -17.25 6.59375 -17.25 C 8.09375 -17.25 9.300781 -16.8125 10.21875 -15.9375 C 11.132812 -15.070312 11.59375 -14.015625 11.59375 -12.765625 C 11.59375 -11.960938 11.382812 -11.265625 10.96875 -10.671875 C 10.550781 -10.085938 9.914062 -9.632812 9.0625 -9.3125 C 10.113281 -8.96875 10.914062 -8.410156 11.46875 -7.640625 C 12.019531 -6.878906 12.296875 -5.96875 12.296875 -4.90625 C 12.296875 -3.4375 11.773438 -2.203125 10.734375 -1.203125 C 9.691406 -0.203125 8.328125 0.296875 6.640625 0.296875 C 4.941406 0.296875 3.570312 -0.203125 2.53125 -1.203125 C 1.488281 -2.210938 0.96875 -3.46875 0.96875 -4.96875 C 0.96875 -6.082031 1.25 -7.015625 1.8125 -7.765625 C 2.382812 -8.523438 3.195312 -9.039062 4.25 -9.3125 Z M 3.828125 -12.890625 C 3.828125 -12.078125 4.085938 -11.410156 4.609375 -10.890625 C 5.128906 -10.378906 5.804688 -10.125 6.640625 -10.125 C 7.453125 -10.125 8.117188 -10.378906 8.640625 -10.890625 C 9.160156 -11.398438 9.421875 -12.03125 9.421875 -12.78125 C 9.421875 -13.550781 9.148438 -14.195312 8.609375 -14.71875 C 8.078125 -15.25 7.414062 -15.515625 6.625 -15.515625 C 5.820312 -15.515625 5.15625 -15.253906 4.625 -14.734375 C 4.09375 -14.222656 3.828125 -13.609375 3.828125 -12.890625 Z M 3.140625 -4.953125 C 3.140625 -4.359375 3.28125 -3.78125 3.5625 -3.21875 C 3.851562 -2.65625 4.28125 -2.21875 4.84375 -1.90625 C 5.40625 -1.59375 6.007812 -1.4375 6.65625 -1.4375 C 7.664062 -1.4375 8.5 -1.757812 9.15625 -2.40625 C 9.8125 -3.0625 10.140625 -3.890625 10.140625 -4.890625 C 10.140625 -5.898438 9.800781 -6.738281 9.125 -7.40625 C 8.445312 -8.070312 7.601562 -8.40625 6.59375 -8.40625 C 5.59375 -8.40625 4.765625 -8.078125 4.109375 -7.421875 C 3.460938 -6.765625 3.140625 -5.941406 3.140625 -4.953125 Z M 3.140625 -4.953125 "/>
</symbol>
<symbol overflow="visible" id="glyph1-8">
<path style="stroke:none;" d="M 1.3125 -3.96875 L 3.34375 -4.15625 C 3.507812 -3.207031 3.832031 -2.515625 4.3125 -2.078125 C 4.800781 -1.648438 5.425781 -1.4375 6.1875 -1.4375 C 6.832031 -1.4375 7.398438 -1.582031 7.890625 -1.875 C 8.378906 -2.175781 8.78125 -2.578125 9.09375 -3.078125 C 9.40625 -3.578125 9.664062 -4.25 9.875 -5.09375 C 10.09375 -5.9375 10.203125 -6.796875 10.203125 -7.671875 C 10.203125 -7.765625 10.195312 -7.90625 10.1875 -8.09375 C 9.757812 -7.414062 9.179688 -6.867188 8.453125 -6.453125 C 7.722656 -6.035156 6.929688 -5.828125 6.078125 -5.828125 C 4.660156 -5.828125 3.457031 -6.34375 2.46875 -7.375 C 1.488281 -8.40625 1 -9.765625 1 -11.453125 C 1 -13.191406 1.507812 -14.59375 2.53125 -15.65625 C 3.5625 -16.71875 4.851562 -17.25 6.40625 -17.25 C 7.519531 -17.25 8.539062 -16.945312 9.46875 -16.34375 C 10.394531 -15.75 11.097656 -14.894531 11.578125 -13.78125 C 12.054688 -12.664062 12.296875 -11.050781 12.296875 -8.9375 C 12.296875 -6.75 12.054688 -5.003906 11.578125 -3.703125 C 11.097656 -2.398438 10.390625 -1.40625 9.453125 -0.71875 C 8.515625 -0.0390625 7.410156 0.296875 6.140625 0.296875 C 4.796875 0.296875 3.695312 -0.078125 2.84375 -0.828125 C 2 -1.578125 1.488281 -2.625 1.3125 -3.96875 Z M 9.953125 -11.5625 C 9.953125 -12.769531 9.628906 -13.726562 8.984375 -14.4375 C 8.335938 -15.144531 7.5625 -15.5 6.65625 -15.5 C 5.71875 -15.5 4.898438 -15.113281 4.203125 -14.34375 C 3.515625 -13.582031 3.171875 -12.59375 3.171875 -11.375 C 3.171875 -10.28125 3.5 -9.390625 4.15625 -8.703125 C 4.8125 -8.023438 5.625 -7.6875 6.59375 -7.6875 C 7.570312 -7.6875 8.375 -8.023438 9 -8.703125 C 9.632812 -9.390625 9.953125 -10.34375 9.953125 -11.5625 Z M 9.953125 -11.5625 "/>
</symbol>
<symbol overflow="visible" id="glyph1-9">
<path style="stroke:none;" d="M 1 -8.46875 C 1 -10.5 1.207031 -12.132812 1.625 -13.375 C 2.039062 -14.613281 2.660156 -15.566406 3.484375 -16.234375 C 4.304688 -16.910156 5.34375 -17.25 6.59375 -17.25 C 7.519531 -17.25 8.328125 -17.0625 9.015625 -16.6875 C 9.710938 -16.320312 10.285156 -15.789062 10.734375 -15.09375 C 11.191406 -14.394531 11.550781 -13.539062 11.8125 -12.53125 C 12.070312 -11.53125 12.203125 -10.175781 12.203125 -8.46875 C 12.203125 -6.457031 11.992188 -4.832031 11.578125 -3.59375 C 11.160156 -2.351562 10.539062 -1.394531 9.71875 -0.71875 C 8.894531 -0.0390625 7.851562 0.296875 6.59375 0.296875 C 4.9375 0.296875 3.640625 -0.296875 2.703125 -1.484375 C 1.566406 -2.921875 1 -5.25 1 -8.46875 Z M 3.171875 -8.46875 C 3.171875 -5.65625 3.5 -3.78125 4.15625 -2.84375 C 4.8125 -1.90625 5.625 -1.4375 6.59375 -1.4375 C 7.5625 -1.4375 8.375 -1.90625 9.03125 -2.84375 C 9.695312 -3.78125 10.03125 -5.65625 10.03125 -8.46875 C 10.03125 -11.300781 9.695312 -13.179688 9.03125 -14.109375 C 8.375 -15.035156 7.554688 -15.5 6.578125 -15.5 C 5.609375 -15.5 4.832031 -15.09375 4.25 -14.28125 C 3.53125 -13.226562 3.171875 -11.289062 3.171875 -8.46875 Z M 3.171875 -8.46875 "/>
</symbol>
<symbol overflow="visible" id="glyph1-10">
<path style="stroke:none;" d="M 1.859375 0 L 1.859375 -17.1875 L 8.328125 -17.1875 C 9.472656 -17.1875 10.347656 -17.128906 10.953125 -17.015625 C 11.796875 -16.878906 12.5 -16.613281 13.0625 -16.21875 C 13.632812 -15.820312 14.09375 -15.265625 14.4375 -14.546875 C 14.789062 -13.835938 14.96875 -13.0625 14.96875 -12.21875 C 14.96875 -10.75 14.5 -9.507812 13.5625 -8.5 C 12.632812 -7.488281 10.957031 -6.984375 8.53125 -6.984375 L 4.125 -6.984375 L 4.125 0 Z M 4.125 -9.015625 L 8.5625 -9.015625 C 10.03125 -9.015625 11.070312 -9.285156 11.6875 -9.828125 C 12.3125 -10.378906 12.625 -11.148438 12.625 -12.140625 C 12.625 -12.859375 12.441406 -13.472656 12.078125 -13.984375 C 11.710938 -14.492188 11.234375 -14.832031 10.640625 -15 C 10.253906 -15.101562 9.546875 -15.15625 8.515625 -15.15625 L 4.125 -15.15625 Z M 4.125 -9.015625 "/>
</symbol>
<symbol overflow="visible" id="glyph1-11">
<path style="stroke:none;" d="M 1.578125 0 L 1.578125 -17.1875 L 3.6875 -17.1875 L 3.6875 -11.015625 C 4.675781 -12.160156 5.921875 -12.734375 7.421875 -12.734375 C 8.335938 -12.734375 9.132812 -12.550781 9.8125 -12.1875 C 10.5 -11.820312 10.988281 -11.316406 11.28125 -10.671875 C 11.570312 -10.035156 11.71875 -9.109375 11.71875 -7.890625 L 11.71875 0 L 9.609375 0 L 9.609375 -7.890625 C 9.609375 -8.941406 9.378906 -9.707031 8.921875 -10.1875 C 8.460938 -10.664062 7.816406 -10.90625 6.984375 -10.90625 C 6.359375 -10.90625 5.769531 -10.742188 5.21875 -10.421875 C 4.664062 -10.097656 4.269531 -9.660156 4.03125 -9.109375 C 3.800781 -8.554688 3.6875 -7.789062 3.6875 -6.8125 L 3.6875 0 Z M 1.578125 0 "/>
</symbol>
<symbol overflow="visible" id="glyph1-12">
<path style="stroke:none;" d="M 9.703125 -1.53125 C 8.921875 -0.875 8.164062 -0.40625 7.4375 -0.125 C 6.71875 0.144531 5.945312 0.28125 5.125 0.28125 C 3.757812 0.28125 2.707031 -0.0507812 1.96875 -0.71875 C 1.238281 -1.382812 0.875 -2.238281 0.875 -3.28125 C 0.875 -3.894531 1.007812 -4.453125 1.28125 -4.953125 C 1.5625 -5.453125 1.925781 -5.851562 2.375 -6.15625 C 2.820312 -6.46875 3.328125 -6.703125 3.890625 -6.859375 C 4.304688 -6.960938 4.929688 -7.066406 5.765625 -7.171875 C 7.472656 -7.378906 8.726562 -7.625 9.53125 -7.90625 C 9.539062 -8.1875 9.546875 -8.367188 9.546875 -8.453125 C 9.546875 -9.304688 9.34375 -9.910156 8.9375 -10.265625 C 8.40625 -10.742188 7.609375 -10.984375 6.546875 -10.984375 C 5.546875 -10.984375 4.8125 -10.804688 4.34375 -10.453125 C 3.875 -10.109375 3.523438 -9.492188 3.296875 -8.609375 L 1.234375 -8.890625 C 1.421875 -9.773438 1.726562 -10.488281 2.15625 -11.03125 C 2.582031 -11.570312 3.203125 -11.988281 4.015625 -12.28125 C 4.828125 -12.582031 5.769531 -12.734375 6.84375 -12.734375 C 7.90625 -12.734375 8.769531 -12.609375 9.4375 -12.359375 C 10.101562 -12.109375 10.59375 -11.789062 10.90625 -11.40625 C 11.21875 -11.03125 11.4375 -10.550781 11.5625 -9.96875 C 11.625 -9.613281 11.65625 -8.96875 11.65625 -8.03125 L 11.65625 -5.21875 C 11.65625 -3.257812 11.703125 -2.019531 11.796875 -1.5 C 11.890625 -0.976562 12.066406 -0.476562 12.328125 0 L 10.125 0 C 9.90625 -0.4375 9.765625 -0.945312 9.703125 -1.53125 Z M 9.53125 -6.25 C 8.757812 -5.9375 7.609375 -5.671875 6.078125 -5.453125 C 5.210938 -5.328125 4.597656 -5.1875 4.234375 -5.03125 C 3.878906 -4.875 3.601562 -4.644531 3.40625 -4.34375 C 3.21875 -4.039062 3.125 -3.707031 3.125 -3.34375 C 3.125 -2.78125 3.332031 -2.3125 3.75 -1.9375 C 4.175781 -1.5625 4.800781 -1.375 5.625 -1.375 C 6.4375 -1.375 7.160156 -1.550781 7.796875 -1.90625 C 8.429688 -2.257812 8.894531 -2.742188 9.1875 -3.359375 C 9.414062 -3.835938 9.53125 -4.539062 9.53125 -5.46875 Z M 9.53125 -6.25 "/>
</symbol>
<symbol overflow="visible" id="glyph1-13">
<path style="stroke:none;" d="M 0.734375 -3.71875 L 2.828125 -4.046875 C 2.941406 -3.210938 3.265625 -2.570312 3.796875 -2.125 C 4.335938 -1.675781 5.085938 -1.453125 6.046875 -1.453125 C 7.015625 -1.453125 7.734375 -1.648438 8.203125 -2.046875 C 8.671875 -2.441406 8.90625 -2.90625 8.90625 -3.4375 C 8.90625 -3.914062 8.695312 -4.289062 8.28125 -4.5625 C 8 -4.75 7.28125 -4.988281 6.125 -5.28125 C 4.582031 -5.664062 3.507812 -6 2.90625 -6.28125 C 2.3125 -6.570312 1.859375 -6.96875 1.546875 -7.46875 C 1.242188 -7.976562 1.09375 -8.535156 1.09375 -9.140625 C 1.09375 -9.691406 1.21875 -10.203125 1.46875 -10.671875 C 1.726562 -11.148438 2.078125 -11.546875 2.515625 -11.859375 C 2.835938 -12.097656 3.28125 -12.300781 3.84375 -12.46875 C 4.414062 -12.644531 5.023438 -12.734375 5.671875 -12.734375 C 6.648438 -12.734375 7.507812 -12.59375 8.25 -12.3125 C 8.988281 -12.03125 9.53125 -11.644531 9.875 -11.15625 C 10.226562 -10.675781 10.472656 -10.035156 10.609375 -9.234375 L 8.546875 -8.953125 C 8.453125 -9.597656 8.179688 -10.097656 7.734375 -10.453125 C 7.285156 -10.816406 6.648438 -11 5.828125 -11 C 4.859375 -11 4.164062 -10.835938 3.75 -10.515625 C 3.332031 -10.191406 3.125 -9.816406 3.125 -9.390625 C 3.125 -9.117188 3.210938 -8.875 3.390625 -8.65625 C 3.554688 -8.425781 3.828125 -8.238281 4.203125 -8.09375 C 4.410156 -8.007812 5.03125 -7.828125 6.0625 -7.546875 C 7.550781 -7.148438 8.585938 -6.820312 9.171875 -6.5625 C 9.765625 -6.3125 10.226562 -5.941406 10.5625 -5.453125 C 10.90625 -4.972656 11.078125 -4.375 11.078125 -3.65625 C 11.078125 -2.957031 10.867188 -2.296875 10.453125 -1.671875 C 10.046875 -1.046875 9.457031 -0.5625 8.6875 -0.21875 C 7.914062 0.113281 7.039062 0.28125 6.0625 0.28125 C 4.445312 0.28125 3.210938 -0.0507812 2.359375 -0.71875 C 1.515625 -1.394531 0.972656 -2.394531 0.734375 -3.71875 Z M 0.734375 -3.71875 "/>
</symbol>
<symbol overflow="visible" id="glyph1-14">
<path style="stroke:none;" d="M 10.109375 -4.015625 L 12.28125 -3.734375 C 11.9375 -2.460938 11.300781 -1.472656 10.375 -0.765625 C 9.445312 -0.0664062 8.257812 0.28125 6.8125 0.28125 C 4.988281 0.28125 3.539062 -0.273438 2.46875 -1.390625 C 1.40625 -2.515625 0.875 -4.09375 0.875 -6.125 C 0.875 -8.21875 1.410156 -9.84375 2.484375 -11 C 3.566406 -12.15625 4.96875 -12.734375 6.6875 -12.734375 C 8.351562 -12.734375 9.710938 -12.164062 10.765625 -11.03125 C 11.828125 -9.894531 12.359375 -8.300781 12.359375 -6.25 C 12.359375 -6.125 12.351562 -5.9375 12.34375 -5.6875 L 3.0625 -5.6875 C 3.132812 -4.320312 3.519531 -3.273438 4.21875 -2.546875 C 4.914062 -1.816406 5.785156 -1.453125 6.828125 -1.453125 C 7.597656 -1.453125 8.253906 -1.65625 8.796875 -2.0625 C 9.347656 -2.46875 9.785156 -3.117188 10.109375 -4.015625 Z M 3.171875 -7.421875 L 10.125 -7.421875 C 10.03125 -8.460938 9.765625 -9.25 9.328125 -9.78125 C 8.660156 -10.59375 7.789062 -11 6.71875 -11 C 5.75 -11 4.929688 -10.671875 4.265625 -10.015625 C 3.609375 -9.367188 3.242188 -8.503906 3.171875 -7.421875 Z M 3.171875 -7.421875 "/>
</symbol>
<symbol overflow="visible" id="glyph1-15">
<path style="stroke:none;" d="M 1.5625 0 L 1.5625 -12.453125 L 3.453125 -12.453125 L 3.453125 -10.5625 C 3.941406 -11.445312 4.390625 -12.03125 4.796875 -12.3125 C 5.210938 -12.59375 5.664062 -12.734375 6.15625 -12.734375 C 6.863281 -12.734375 7.585938 -12.503906 8.328125 -12.046875 L 7.59375 -10.09375 C 7.082031 -10.394531 6.566406 -10.546875 6.046875 -10.546875 C 5.585938 -10.546875 5.171875 -10.40625 4.796875 -10.125 C 4.429688 -9.851562 4.171875 -9.472656 4.015625 -8.984375 C 3.785156 -8.234375 3.671875 -7.410156 3.671875 -6.515625 L 3.671875 0 Z M 1.5625 0 "/>
</symbol>
<symbol overflow="visible" id="glyph1-16">
<path style="stroke:none;" d=""/>
</symbol>
<symbol overflow="visible" id="glyph1-17">
<path style="stroke:none;" d="M 1.78125 0 L 1.78125 -17.1875 L 5.203125 -17.1875 L 9.265625 -5.015625 C 9.640625 -3.878906 9.914062 -3.03125 10.09375 -2.46875 C 10.289062 -3.09375 10.59375 -4.015625 11 -5.234375 L 15.125 -17.1875 L 18.171875 -17.1875 L 18.171875 0 L 15.984375 0 L 15.984375 -14.375 L 11 0 L 8.9375 0 L 3.96875 -14.625 L 3.96875 0 Z M 1.78125 0 "/>
</symbol>
<symbol overflow="visible" id="glyph1-18">
<path style="stroke:none;" d="M 0.796875 -6.21875 C 0.796875 -8.53125 1.4375 -10.238281 2.71875 -11.34375 C 3.789062 -12.269531 5.097656 -12.734375 6.640625 -12.734375 C 8.347656 -12.734375 9.742188 -12.171875 10.828125 -11.046875 C 11.910156 -9.921875 12.453125 -8.375 12.453125 -6.40625 C 12.453125 -4.800781 12.210938 -3.539062 11.734375 -2.625 C 11.253906 -1.707031 10.554688 -0.992188 9.640625 -0.484375 C 8.722656 0.0234375 7.722656 0.28125 6.640625 0.28125 C 4.890625 0.28125 3.476562 -0.273438 2.40625 -1.390625 C 1.332031 -2.515625 0.796875 -4.125 0.796875 -6.21875 Z M 2.96875 -6.21875 C 2.96875 -4.625 3.3125 -3.429688 4 -2.640625 C 4.695312 -1.847656 5.578125 -1.453125 6.640625 -1.453125 C 7.679688 -1.453125 8.550781 -1.847656 9.25 -2.640625 C 9.945312 -3.441406 10.296875 -4.660156 10.296875 -6.296875 C 10.296875 -7.835938 9.941406 -9.003906 9.234375 -9.796875 C 8.535156 -10.585938 7.671875 -10.984375 6.640625 -10.984375 C 5.578125 -10.984375 4.695312 -10.585938 4 -9.796875 C 3.3125 -9.003906 2.96875 -7.8125 2.96875 -6.21875 Z M 2.96875 -6.21875 "/>
</symbol>
<symbol overflow="visible" id="glyph1-19">
<path style="stroke:none;" d="M 6.1875 -1.890625 L 6.5 -0.03125 C 5.90625 0.101562 5.375 0.171875 4.90625 0.171875 C 4.132812 0.171875 3.535156 0.0507812 3.109375 -0.1875 C 2.691406 -0.4375 2.394531 -0.757812 2.21875 -1.15625 C 2.050781 -1.550781 1.96875 -2.378906 1.96875 -3.640625 L 1.96875 -10.8125 L 0.421875 -10.8125 L 0.421875 -12.453125 L 1.96875 -12.453125 L 1.96875 -15.53125 L 4.0625 -16.796875 L 4.0625 -12.453125 L 6.1875 -12.453125 L 6.1875 -10.8125 L 4.0625 -10.8125 L 4.0625 -3.53125 C 4.0625 -2.925781 4.097656 -2.535156 4.171875 -2.359375 C 4.253906 -2.191406 4.378906 -2.054688 4.546875 -1.953125 C 4.710938 -1.859375 4.953125 -1.8125 5.265625 -1.8125 C 5.492188 -1.8125 5.800781 -1.835938 6.1875 -1.890625 Z M 6.1875 -1.890625 "/>
</symbol>
<symbol overflow="visible" id="glyph2-0">
<path style="stroke:none;" d="M 1.96875 -17.5 L 13.21875 -17.5 L 13.21875 -16.484375 L 6.875 0 L 4.390625 0 L 10.375 -15.5 L 1.96875 -15.5 Z M 1.96875 -17.5 "/>
</symbol>
<symbol overflow="visible" id="glyph2-1">
<path style="stroke:none;" d="M 12.484375 -10.609375 C 13.023438 -11.578125 13.671875 -12.289062 14.421875 -12.75 C 15.171875 -13.207031 16.050781 -13.4375 17.0625 -13.4375 C 18.425781 -13.4375 19.476562 -12.957031 20.21875 -12 C 20.96875 -11.050781 21.34375 -9.691406 21.34375 -7.921875 L 21.34375 0 L 19.171875 0 L 19.171875 -7.859375 C 19.171875 -9.109375 18.945312 -10.035156 18.5 -10.640625 C 18.0625 -11.253906 17.382812 -11.5625 16.46875 -11.5625 C 15.351562 -11.5625 14.46875 -11.191406 13.8125 -10.453125 C 13.164062 -9.710938 12.84375 -8.703125 12.84375 -7.421875 L 12.84375 0 L 10.671875 0 L 10.671875 -7.859375 C 10.671875 -9.117188 10.445312 -10.050781 10 -10.65625 C 9.5625 -11.257812 8.878906 -11.5625 7.953125 -11.5625 C 6.847656 -11.5625 5.96875 -11.1875 5.3125 -10.4375 C 4.664062 -9.695312 4.34375 -8.691406 4.34375 -7.421875 L 4.34375 0 L 2.1875 0 L 2.1875 -13.125 L 4.34375 -13.125 L 4.34375 -11.09375 C 4.84375 -11.894531 5.4375 -12.484375 6.125 -12.859375 C 6.8125 -13.242188 7.625 -13.4375 8.5625 -13.4375 C 9.519531 -13.4375 10.332031 -13.191406 11 -12.703125 C 11.664062 -12.222656 12.160156 -11.523438 12.484375 -10.609375 Z M 12.484375 -10.609375 "/>
</symbol>
<symbol overflow="visible" id="glyph2-2">
<path style="stroke:none;" d="M 2.59375 -17.5 L 11.890625 -17.5 L 11.890625 -15.5 L 4.765625 -15.5 L 4.765625 -11.21875 C 5.109375 -11.332031 5.453125 -11.414062 5.796875 -11.46875 C 6.140625 -11.53125 6.484375 -11.5625 6.828125 -11.5625 C 8.773438 -11.5625 10.316406 -11.023438 11.453125 -9.953125 C 12.597656 -8.890625 13.171875 -7.441406 13.171875 -5.609375 C 13.171875 -3.734375 12.582031 -2.269531 11.40625 -1.21875 C 10.238281 -0.175781 8.585938 0.34375 6.453125 0.34375 C 5.722656 0.34375 4.976562 0.28125 4.21875 0.15625 C 3.457031 0.03125 2.671875 -0.15625 1.859375 -0.40625 L 1.859375 -2.796875 C 2.554688 -2.410156 3.28125 -2.125 4.03125 -1.9375 C 4.78125 -1.75 5.570312 -1.65625 6.40625 -1.65625 C 7.757812 -1.65625 8.832031 -2.007812 9.625 -2.71875 C 10.414062 -3.425781 10.8125 -4.390625 10.8125 -5.609375 C 10.8125 -6.828125 10.414062 -7.789062 9.625 -8.5 C 8.832031 -9.21875 7.757812 -9.578125 6.40625 -9.578125 C 5.78125 -9.578125 5.148438 -9.503906 4.515625 -9.359375 C 3.890625 -9.222656 3.25 -9.003906 2.59375 -8.703125 Z M 2.59375 -17.5 "/>
</symbol>
</g>
</defs>
<g id="surface554368">
<rect x="0" y="0" width="708" height="657" style="fill:rgb(100%,100%,100%);fill-opacity:1;stroke:none;"/>
<path style="fill-rule:evenodd;fill:rgb(100%,100%,100%);fill-opacity:1;stroke-width:0.5;stroke-linecap:butt;stroke-linejoin:miter;stroke:rgb(49.803922%,49.803922%,49.803922%);stroke-opacity:1;stroke-miterlimit:10;" d="M 12.014635 3.59461 L 57.614603 3.59461 L 57.614603 46.394732 L 12.014635 46.394732 Z M 12.014635 3.59461 " transform="matrix(14.2,0,0,14.2,-113.599997,-5.113775)"/>
<path style="fill-rule:evenodd;fill:rgb(67.843139%,84.705883%,90.196079%);fill-opacity:1;stroke-width:0.1;stroke-linecap:butt;stroke-linejoin:miter;stroke:rgb(0%,0%,0%);stroke-opacity:1;stroke-miterlimit:10;" d="M 16.655645 7.058244 C 16.655645 7.8593 16.006437 8.508508 15.205656 8.508508 C 14.404875 8.508508 13.755667 7.8593 13.755667 7.058244 C 13.755667 6.257462 14.404875 5.608255 15.205656 5.608255 C 16.006437 5.608255 16.655645 6.257462 16.655645 7.058244 " transform="matrix(14.2,0,0,14.2,-113.599997,-5.113775)"/>
<path style="fill-rule:evenodd;fill:rgb(67.843139%,84.705883%,90.196079%);fill-opacity:1;stroke-width:0.1;stroke-linecap:butt;stroke-linejoin:miter;stroke:rgb(0%,0%,0%);stroke-opacity:1;stroke-miterlimit:10;" d="M 25.185025 7.058244 C 25.185025 7.8593 24.536092 8.508508 23.735036 8.508508 C 22.934254 8.508508 22.285047 7.8593 22.285047 7.058244 C 22.285047 6.257462 22.934254 5.608255 23.735036 5.608255 C 24.536092 5.608255 25.185025 6.257462 25.185025 7.058244 " transform="matrix(14.2,0,0,14.2,-113.599997,-5.113775)"/>
<path style="fill-rule:evenodd;fill:rgb(67.843139%,84.705883%,90.196079%);fill-opacity:1;stroke-width:0.1;stroke-linecap:butt;stroke-linejoin:miter;stroke:rgb(0%,0%,0%);stroke-opacity:1;stroke-miterlimit:10;" d="M 16.655645 15.573319 C 16.655645 16.3741 16.006437 17.023308 15.205656 17.023308 C 14.404875 17.023308 13.755667 16.3741 13.755667 15.573319 C 13.755667 14.772537 14.404875 14.12333 15.205656 14.12333 C 16.006437 14.12333 16.655645 14.772537 16.655645 15.573319 " transform="matrix(14.2,0,0,14.2,-113.599997,-5.113775)"/>
<path style="fill-rule:evenodd;fill:rgb(67.843139%,84.705883%,90.196079%);fill-opacity:1;stroke-width:0.1;stroke-linecap:butt;stroke-linejoin:miter;stroke:rgb(0%,0%,0%);stroke-opacity:1;stroke-miterlimit:10;" d="M 25.185025 15.573319 C 25.185025 16.3741 24.536092 17.023308 23.735036 17.023308 C 22.934254 17.023308 22.285047 16.3741 22.285047 15.573319 C 22.285047 14.772537 22.934254 14.12333 23.735036 14.12333 C 24.536092 14.12333 25.185025 14.772537 25.185025 15.573319 " transform="matrix(14.2,0,0,14.2,-113.599997,-5.113775)"/>
<path style="fill-rule:evenodd;fill:rgb(67.843139%,84.705883%,90.196079%);fill-opacity:1;stroke-width:0.1;stroke-linecap:butt;stroke-linejoin:miter;stroke:rgb(0%,0%,0%);stroke-opacity:1;stroke-miterlimit:10;" d="M 16.655645 34.484796 C 16.655645 35.285852 16.006437 35.934785 15.205656 35.934785 C 14.404875 35.934785 13.755667 35.285852 13.755667 34.484796 C 13.755667 33.684015 14.404875 33.034807 15.205656 33.034807 C 16.006437 33.034807 16.655645 33.684015 16.655645 34.484796 " transform="matrix(14.2,0,0,14.2,-113.599997,-5.113775)"/>
<path style="fill-rule:evenodd;fill:rgb(67.843139%,84.705883%,90.196079%);fill-opacity:1;stroke-width:0.1;stroke-linecap:butt;stroke-linejoin:miter;stroke:rgb(0%,0%,0%);stroke-opacity:1;stroke-miterlimit:10;" d="M 25.185025 34.484796 C 25.185025 35.285852 24.536092 35.934785 23.735036 35.934785 C 22.934254 35.934785 22.285047 35.285852 22.285047 34.484796 C 22.285047 33.684015 22.934254 33.034807 23.735036 33.034807 C 24.536092 33.034807 25.185025 33.684015 25.185025 34.484796 " transform="matrix(14.2,0,0,14.2,-113.599997,-5.113775)"/>
<path style="fill-rule:evenodd;fill:rgb(67.843139%,84.705883%,90.196079%);fill-opacity:1;stroke-width:0.1;stroke-linecap:butt;stroke-linejoin:miter;stroke:rgb(0%,0%,0%);stroke-opacity:1;stroke-miterlimit:10;" d="M 16.655645 42.999871 C 16.655645 43.800652 16.006437 44.44986 15.205656 44.44986 C 14.404875 44.44986 13.755667 43.800652 13.755667 42.999871 C 13.755667 42.19909 14.404875 41.549882 15.205656 41.549882 C 16.006437 41.549882 16.655645 42.19909 16.655645 42.999871 " transform="matrix(14.2,0,0,14.2,-113.599997,-5.113775)"/>
<path style="fill-rule:evenodd;fill:rgb(67.843139%,84.705883%,90.196079%);fill-opacity:1;stroke-width:0.1;stroke-linecap:butt;stroke-linejoin:miter;stroke:rgb(0%,0%,0%);stroke-opacity:1;stroke-miterlimit:10;" d="M 25.185025 42.999871 C 25.185025 43.800652 24.536092 44.44986 23.735036 44.44986 C 22.934254 44.44986 22.285047 43.800652 22.285047 42.999871 C 22.285047 42.19909 22.934254 41.549882 23.735036 41.549882 C 24.536092 41.549882 25.185025 42.19909 25.185025 42.999871 " transform="matrix(14.2,0,0,14.2,-113.599997,-5.113775)"/>
<path style="fill-rule:evenodd;fill:rgb(64.705884%,16.470589%,16.470589%);fill-opacity:1;stroke-width:0.1;stroke-linecap:butt;stroke-linejoin:miter;stroke:rgb(0%,0%,0%);stroke-opacity:1;stroke-miterlimit:10;" d="M 32.899869 24.732925 C 32.899869 25.533706 32.250936 26.182914 31.44988 26.182914 C 30.649098 26.182914 29.999891 25.533706 29.999891 24.732925 C 29.999891 23.932144 30.649098 23.282936 31.44988 23.282936 C 32.250936 23.282936 32.899869 23.932144 32.899869 24.732925 " transform="matrix(14.2,0,0,14.2,-113.599997,-5.113775)"/>
<path style="fill-rule:evenodd;fill:rgb(67.843139%,84.705883%,90.196079%);fill-opacity:1;stroke-width:0.1;stroke-linecap:butt;stroke-linejoin:miter;stroke:rgb(0%,0%,0%);stroke-opacity:1;stroke-miterlimit:10;" d="M 40.263975 7.041463 C 40.263975 7.842245 39.614768 8.491452 38.813986 8.491452 C 38.013205 8.491452 37.363997 7.842245 37.363997 7.041463 C 37.363997 6.240682 38.013205 5.591474 38.813986 5.591474 C 39.614768 5.591474 40.263975 6.240682 40.263975 7.041463 " transform="matrix(14.2,0,0,14.2,-113.599997,-5.113775)"/>
<path style="fill-rule:evenodd;fill:rgb(67.843139%,84.705883%,90.196079%);fill-opacity:1;stroke-width:0.1;stroke-linecap:butt;stroke-linejoin:miter;stroke:rgb(0%,0%,0%);stroke-opacity:1;stroke-miterlimit:10;" d="M 48.793355 7.041463 C 48.793355 7.842245 48.144147 8.491452 47.343366 8.491452 C 46.542585 8.491452 45.893377 7.842245 45.893377 7.041463 C 45.893377 6.240682 46.542585 5.591474 47.343366 5.591474 C 48.144147 5.591474 48.793355 6.240682 48.793355 7.041463 " transform="matrix(14.2,0,0,14.2,-113.599997,-5.113775)"/>
<path style="fill-rule:evenodd;fill:rgb(67.843139%,84.705883%,90.196079%);fill-opacity:1;stroke-width:0.1;stroke-linecap:butt;stroke-linejoin:miter;stroke:rgb(0%,0%,0%);stroke-opacity:1;stroke-miterlimit:10;" d="M 40.263975 15.556538 C 40.263975 16.35732 39.614768 17.006527 38.813986 17.006527 C 38.013205 17.006527 37.363997 16.35732 37.363997 15.556538 C 37.363997 14.755757 38.013205 14.106549 38.813986 14.106549 C 39.614768 14.106549 40.263975 14.755757 40.263975 15.556538 " transform="matrix(14.2,0,0,14.2,-113.599997,-5.113775)"/>
<path style="fill-rule:evenodd;fill:rgb(67.843139%,84.705883%,90.196079%);fill-opacity:1;stroke-width:0.1;stroke-linecap:butt;stroke-linejoin:miter;stroke:rgb(0%,0%,0%);stroke-opacity:1;stroke-miterlimit:10;" d="M 48.793355 15.556538 C 48.793355 16.35732 48.144147 17.006527 47.343366 17.006527 C 46.542585 17.006527 45.893377 16.35732 45.893377 15.556538 C 45.893377 14.755757 46.542585 14.106549 47.343366 14.106549 C 48.144147 14.106549 48.793355 14.755757 48.793355 15.556538 " transform="matrix(14.2,0,0,14.2,-113.599997,-5.113775)"/>
<path style="fill-rule:evenodd;fill:rgb(67.843139%,84.705883%,90.196079%);fill-opacity:1;stroke-width:0.1;stroke-linecap:butt;stroke-linejoin:miter;stroke:rgb(0%,0%,0%);stroke-opacity:1;stroke-miterlimit:10;" d="M 40.263975 34.468016 C 40.263975 35.268797 39.614768 35.918005 38.813986 35.918005 C 38.013205 35.918005 37.363997 35.268797 37.363997 34.468016 C 37.363997 33.667234 38.013205 33.018027 38.813986 33.018027 C 39.614768 33.018027 40.263975 33.667234 40.263975 34.468016 " transform="matrix(14.2,0,0,14.2,-113.599997,-5.113775)"/>
<path style="fill-rule:evenodd;fill:rgb(67.843139%,84.705883%,90.196079%);fill-opacity:1;stroke-width:0.1;stroke-linecap:butt;stroke-linejoin:miter;stroke:rgb(0%,0%,0%);stroke-opacity:1;stroke-miterlimit:10;" d="M 48.793355 34.468016 C 48.793355 35.268797 48.144147 35.918005 47.343366 35.918005 C 46.542585 35.918005 45.893377 35.268797 45.893377 34.468016 C 45.893377 33.667234 46.542585 33.018027 47.343366 33.018027 C 48.144147 33.018027 48.793355 33.667234 48.793355 34.468016 " transform="matrix(14.2,0,0,14.2,-113.599997,-5.113775)"/>
<path style="fill-rule:evenodd;fill:rgb(67.843139%,84.705883%,90.196079%);fill-opacity:1;stroke-width:0.1;stroke-linecap:butt;stroke-linejoin:miter;stroke:rgb(0%,0%,0%);stroke-opacity:1;stroke-miterlimit:10;" d="M 40.263975 42.983091 C 40.263975 43.783872 39.614768 44.43308 38.813986 44.43308 C 38.013205 44.43308 37.363997 43.783872 37.363997 42.983091 C 37.363997 42.182309 38.013205 41.533102 38.813986 41.533102 C 39.614768 41.533102 40.263975 42.182309 40.263975 42.983091 " transform="matrix(14.2,0,0,14.2,-113.599997,-5.113775)"/>
<path style="fill-rule:evenodd;fill:rgb(67.843139%,84.705883%,90.196079%);fill-opacity:1;stroke-width:0.1;stroke-linecap:butt;stroke-linejoin:miter;stroke:rgb(0%,0%,0%);stroke-opacity:1;stroke-miterlimit:10;" d="M 48.793355 42.983091 C 48.793355 43.783872 48.144147 44.43308 47.343366 44.43308 C 46.542585 44.43308 45.893377 43.783872 45.893377 42.983091 C 45.893377 42.182309 46.542585 41.533102 47.343366 41.533102 C 48.144147 41.533102 48.793355 42.182309 48.793355 42.983091 " transform="matrix(14.2,0,0,14.2,-113.599997,-5.113775)"/>
<path style="fill-rule:evenodd;fill:rgb(100%,100%,100%);fill-opacity:1;stroke-width:0.1;stroke-linecap:butt;stroke-linejoin:miter;stroke:rgb(100%,100%,100%);stroke-opacity:1;stroke-miterlimit:10;" d="M 50.814702 3.244698 L 55.778666 3.244698 L 55.778666 5.144731 L 50.814702 5.144731 Z M 50.814702 3.244698 " transform="matrix(14.2,0,0,14.2,-113.599997,-5.113775)"/>
<path style="fill:none;stroke-width:0.3;stroke-linecap:butt;stroke-linejoin:miter;stroke:rgb(0%,0%,0%);stroke-opacity:1;stroke-miterlimit:10;" d="M 55.781141 3.363536 L 55.778666 8.515385 " transform="matrix(14.2,0,0,14.2,-113.599997,-5.113775)"/>
<path style="fill:none;stroke-width:0.2;stroke-linecap:butt;stroke-linejoin:miter;stroke:rgb(0%,0%,0%);stroke-opacity:1;stroke-miterlimit:10;" d="M 50.82268 3.34373 L 50.82268 3.34373 C 50.920611 6.058023 53.067123 8.252676 55.778666 8.410576 " transform="matrix(14.2,0,0,14.2,-113.599997,-5.113775)"/>
<g style="fill:rgb(0%,0%,0%);fill-opacity:1;">
  <use xlink:href="#glyph0-0" x="551.785156" y="103.480273"/>
</g>
<g style="fill:rgb(0%,0%,0%);fill-opacity:1;">
  <use xlink:href="#glyph1-0" x="551.199219" y="224.675585"/>
</g>
<g style="fill:rgb(0%,0%,0%);fill-opacity:1;">
  <use xlink:href="#glyph1-1" x="431.222656" y="224.581835"/>
</g>
<g style="fill:rgb(0%,0%,0%);fill-opacity:1;">
  <use xlink:href="#glyph1-2" x="430.871094" y="103.738085"/>
</g>
<g style="fill:rgb(0%,0%,0%);fill-opacity:1;">
  <use xlink:href="#glyph1-3" x="551.011719" y="493.195117"/>
</g>
<g style="fill:rgb(0%,0%,0%);fill-opacity:1;">
  <use xlink:href="#glyph1-4" x="551.664062" y="614.335742"/>
</g>
<g style="fill:rgb(0%,0%,0%);fill-opacity:1;">
  <use xlink:href="#glyph1-5" x="430.824219" y="613.984179"/>
</g>
<g style="fill:rgb(0%,0%,0%);fill-opacity:1;">
  <use xlink:href="#glyph1-6" x="431.476562" y="494.148242"/>
</g>
<g style="fill:rgb(0%,0%,0%);fill-opacity:1;">
  <use xlink:href="#glyph1-7" x="217.171875" y="493.796679"/>
</g>
<g style="fill:rgb(0%,0%,0%);fill-opacity:1;">
  <use xlink:href="#glyph1-8" x="217.324219" y="614.94121"/>
</g>
<g style="fill:rgb(0%,0%,0%);fill-opacity:1;">
  <use xlink:href="#glyph1-0" x="87.445312" y="614.589648"/>
  <use xlink:href="#glyph1-9" x="100.799414" y="614.589648"/>
</g>
<g style="fill:rgb(0%,0%,0%);fill-opacity:1;">
  <use xlink:href="#glyph1-0" x="89.601562" y="493.745898"/>
  <use xlink:href="#glyph1-0" x="100.958789" y="493.745898"/>
</g>
<g style="fill:rgb(0%,0%,0%);fill-opacity:1;">
  <use xlink:href="#glyph1-0" x="208.136719" y="103.831835"/>
  <use xlink:href="#glyph1-1" x="221.49082" y="103.831835"/>
</g>
<g style="fill:rgb(0%,0%,0%);fill-opacity:1;">
  <use xlink:href="#glyph1-0" x="208.789062" y="224.47246"/>
  <use xlink:href="#glyph1-2" x="222.143164" y="224.47246"/>
</g>
<g style="fill:rgb(0%,0%,0%);fill-opacity:1;">
  <use xlink:href="#glyph1-0" x="86.941406" y="224.624804"/>
  <use xlink:href="#glyph1-3" x="100.295507" y="224.624804"/>
</g>
<g style="fill:rgb(0%,0%,0%);fill-opacity:1;">
  <use xlink:href="#glyph1-0" x="87.59375" y="104.78496"/>
  <use xlink:href="#glyph1-4" x="100.947851" y="104.78496"/>
</g>
<g style="fill:rgb(0%,0%,0%);fill-opacity:1;">
  <use xlink:href="#glyph1-10" x="269.785156" y="395.527148"/>
  <use xlink:href="#glyph1-11" x="285.78789" y="395.527148"/>
  <use xlink:href="#glyph1-12" x="299.141991" y="395.527148"/>
  <use xlink:href="#glyph1-13" x="312.496092" y="395.527148"/>
  <use xlink:href="#glyph1-14" x="324.491209" y="395.527148"/>
  <use xlink:href="#glyph1-15" x="337.84531" y="395.527148"/>
  <use xlink:href="#glyph1-16" x="345.83281" y="395.527148"/>
  <use xlink:href="#glyph1-17" x="352.502927" y="395.527148"/>
  <use xlink:href="#glyph1-18" x="372.499411" y="395.527148"/>
  <use xlink:href="#glyph1-19" x="385.853512" y="395.527148"/>
  <use xlink:href="#glyph1-14" x="392.523629" y="395.527148"/>
</g>
<path style="fill:none;stroke-width:0.2;stroke-linecap:butt;stroke-linejoin:miter;stroke:rgb(0%,0%,0%);stroke-opacity:1;stroke-miterlimit:10;" d="M 11.00011 4.098571 L 11.00011 45.9015 " transform="matrix(14.2,0,0,14.2,-113.599997,-5.113775)"/>
<path style="fill-rule:evenodd;fill:rgb(0%,0%,0%);fill-opacity:1;stroke-width:0.2;stroke-linecap:butt;stroke-linejoin:miter;stroke:rgb(0%,0%,0%);stroke-opacity:1;stroke-miterlimit:10;" d="M 11.00011 3.723626 L 11.24989 4.223736 L 11.00011 4.098571 L 10.750055 4.223736 Z M 11.00011 3.723626 " transform="matrix(14.2,0,0,14.2,-113.599997,-5.113775)"/>
<path style="fill-rule:evenodd;fill:rgb(0%,0%,0%);fill-opacity:1;stroke-width:0.2;stroke-linecap:butt;stroke-linejoin:miter;stroke:rgb(0%,0%,0%);stroke-opacity:1;stroke-miterlimit:10;" d="M 11.00011 46.276445 L 10.750055 45.776335 L 11.00011 45.9015 L 11.24989 45.776335 Z M 11.00011 46.276445 " transform="matrix(14.2,0,0,14.2,-113.599997,-5.113775)"/>
<g style="fill:rgb(0%,0%,0%);fill-opacity:1;">
  <use xlink:href="#glyph2-0" x="0" y="349.886132"/>
  <use xlink:href="#glyph2-1" x="15.267773" y="349.886132"/>
</g>
<path style="fill:none;stroke-width:0.2;stroke-linecap:butt;stroke-linejoin:miter;stroke:rgb(0%,0%,0%);stroke-opacity:1;stroke-miterlimit:10;" d="M 12.421765 2.424386 L 57.224528 2.424386 " transform="matrix(14.2,0,0,14.2,-113.599997,-5.113775)"/>
<path style="fill-rule:evenodd;fill:rgb(0%,0%,0%);fill-opacity:1;stroke-width:0.2;stroke-linecap:butt;stroke-linejoin:miter;stroke:rgb(0%,0%,0%);stroke-opacity:1;stroke-miterlimit:10;" d="M 12.04682 2.424386 L 12.54693 2.174331 L 12.421765 2.424386 L 12.54693 2.674166 Z M 12.04682 2.424386 " transform="matrix(14.2,0,0,14.2,-113.599997,-5.113775)"/>
<path style="fill-rule:evenodd;fill:rgb(0%,0%,0%);fill-opacity:1;stroke-width:0.2;stroke-linecap:butt;stroke-linejoin:miter;stroke:rgb(0%,0%,0%);stroke-opacity:1;stroke-miterlimit:10;" d="M 57.599748 2.424386 L 57.099638 2.674166 L 57.224528 2.424386 L 57.099638 2.174331 Z M 57.599748 2.424386 " transform="matrix(14.2,0,0,14.2,-113.599997,-5.113775)"/>
<g style="fill:rgb(0%,0%,0%);fill-opacity:1;">
  <use xlink:href="#glyph2-2" x="364.941406" y="23.28457"/>
  <use xlink:href="#glyph2-1" x="380.209179" y="23.28457"/>
</g>
</g>
</svg>
