\relax 
\citation{Voigt2013}
\@writefile{toc}{\contentsline {section}{\numberline {I}Introduction}{1}}
\newlabel{sec:introduction}{{I}{1}}
\citation{peregrine:pe44820}
\@writefile{toc}{\contentsline {section}{\numberline {II}PHASER\xspace  Hardware Prototype}{2}}
\newlabel{sec:hardware}{{II}{2}}
\@writefile{lof}{\contentsline {figure}{\numberline {1}{\ignorespaces PHASER\xspace  board and block diagram. The board has Tmote-mini with a MSP430 MCU and CC2420 radio, RF splitter, phase shifter, low pass filter, and antenna connectors.\relax }}{2}}
\providecommand*\caption@xref[2]{\@setref\relax\@undefined{#1}}
\newlabel{fig:phaser-board}{{1}{2}}
\@writefile{toc}{\contentsline {section}{\numberline {III}Empirical Study}{2}}
\newlabel{sec:study}{{III}{2}}
\@writefile{toc}{\contentsline {subsection}{\numberline {\unhbox \voidb@x \hbox {III-A}}Methodology}{3}}
\@writefile{toc}{\contentsline {subsection}{\numberline {\unhbox \voidb@x \hbox {III-B}}Metrics}{3}}
\newlabel{eq:directional-benefit}{{1}{3}}
\newlabel{eq:mean-directional-benefit}{{2}{3}}
\newlabel{eq:spatial-reuse-index}{{3}{3}}
\@writefile{lof}{\contentsline {figure}{\numberline {2}{\ignorespaces Outdoor radiation patterns when the phase of antenna B is zero and the phase of antenna A is varied in range 0 -- 255.\relax }}{4}}
\newlabel{fig:outdoors}{{2}{4}}
\@writefile{toc}{\contentsline {subsection}{\numberline {\unhbox \voidb@x \hbox {III-C}}Radiation Pattern Experiments}{4}}
\@writefile{toc}{\contentsline {subsubsection}{\numberline {\unhbox \voidb@x \hbox {III-C}1}Radiation Patterns}{4}}
\newlabel{fig:tx-radiation-pattern}{{3a}{4}}
\newlabel{sub@fig:tx-radiation-pattern}{{a}{4}}
\newlabel{fig:directional-benefit-for-node1}{{3b}{4}}
\newlabel{sub@fig:directional-benefit-for-node1}{{b}{4}}
\@writefile{lof}{\contentsline {figure}{\numberline {3}{\ignorespaces Patterns and directional benefit measured by node 1.\relax }}{4}}
\newlabel{fig:tx-radiation-pattern}{{4a}{5}}
\newlabel{sub@fig:tx-radiation-pattern}{{a}{5}}
\newlabel{fig:tx-nonlos-pos1}{{4b}{5}}
\newlabel{sub@fig:tx-nonlos-pos1}{{b}{5}}
\@writefile{lof}{\contentsline {figure}{\numberline {4}{\ignorespaces Tx pattern in LOS vs non LOS mote\relax }}{5}}
\newlabel{fig:rx-radiation-pattern}{{5a}{5}}
\newlabel{sub@fig:rx-radiation-pattern}{{a}{5}}
\newlabel{fig:rx-nonlos-pos1}{{5b}{5}}
\newlabel{sub@fig:rx-nonlos-pos1}{{b}{5}}
\@writefile{lof}{\contentsline {figure}{\numberline {5}{\ignorespaces Rx pattern in LOS vs non LOS mode\relax }}{5}}
\@writefile{toc}{\contentsline {subsubsection}{\numberline {\unhbox \voidb@x \hbox {III-C}2}Directional Benefit}{5}}
\newlabel{fig:directional-benefit-per-node}{{6a}{5}}
\newlabel{sub@fig:directional-benefit-per-node}{{a}{5}}
\newlabel{fig:directional-benefit-long-whip}{{6b}{5}}
\newlabel{sub@fig:directional-benefit-long-whip}{{b}{5}}
\@writefile{lof}{\contentsline {figure}{\numberline {6}{\ignorespaces The directional benefit depends on the location of the receiver.\relax }}{5}}
\newlabel{fig:directional-benefit}{{6}{5}}
\@writefile{toc}{\contentsline {subsubsection}{\numberline {\unhbox \voidb@x \hbox {III-C}3}Spatial Reuse}{5}}
\newlabel{fig:interference-benefit-fixed}{{7a}{6}}
\newlabel{sub@fig:interference-benefit-fixed}{{a}{6}}
\newlabel{fig:interference-benefit-receiver}{{7b}{6}}
\newlabel{sub@fig:interference-benefit-receiver}{{b}{6}}
\@writefile{lof}{\contentsline {figure}{\numberline {7}{\ignorespaces Spatial reuse index\relax }}{6}}
\newlabel{fig:spatialresueindex}{{7}{6}}
\@writefile{toc}{\contentsline {subsection}{\numberline {\unhbox \voidb@x \hbox {III-D}}Link Quality Measurements}{6}}
\newlabel{sec:link-quality-measurements}{{\unhbox \voidb@x \hbox {III-D}}{6}}
\@writefile{toc}{\contentsline {subsubsection}{\numberline {\unhbox \voidb@x \hbox {III-D}1}Link Quality}{6}}
\newlabel{fig:spatialreuse-per-node}{{8a}{6}}
\newlabel{sub@fig:spatialreuse-per-node}{{a}{6}}
\newlabel{fig:spatialreuse-threshold}{{8b}{6}}
\newlabel{sub@fig:spatialreuse-threshold}{{b}{6}}
\@writefile{lof}{\contentsline {figure}{\numberline {8}{\ignorespaces Spatial reuse index varies with receiver location and decreases linearly with the signal threshold\relax }}{6}}
\@writefile{toc}{\contentsline {subsubsection}{\numberline {\unhbox \voidb@x \hbox {III-D}2}A Model for Phase-Shifting Antennas}{6}}
\newlabel{fig:prr0}{{9a}{7}}
\newlabel{sub@fig:prr0}{{a}{7}}
\newlabel{fig:RSS0}{{9b}{7}}
\newlabel{sub@fig:RSS0}{{b}{7}}
\newlabel{fig:lqi0}{{9c}{7}}
\newlabel{sub@fig:lqi0}{{c}{7}}
\@writefile{lof}{\contentsline {figure}{\numberline {9}{\ignorespaces The quality of the link from \texttt  {A+L} measured at node 0 using PRR, LQI, and RSS\relax }}{7}}
\newlabel{fig:linkquality-node0}{{9}{7}}
\newlabel{fig:testbed-rssi}{{10a}{7}}
\newlabel{sub@fig:testbed-rssi}{{a}{7}}
\newlabel{fig:testbed-prr}{{10b}{7}}
\newlabel{sub@fig:testbed-prr}{{b}{7}}
\@writefile{lof}{\contentsline {figure}{\numberline {10}{\ignorespaces The impact of phase configuration changes on links from PHASER\xspace  \texttt  {A} to testbed motes\relax }}{7}}
\newlabel{fig:testbed-links}{{10}{7}}
\newlabel{fig:pm0}{{11a}{7}}
\newlabel{sub@fig:pm0}{{a}{7}}
\newlabel{fig:pm1}{{11b}{7}}
\newlabel{sub@fig:pm1}{{b}{7}}
\@writefile{lof}{\contentsline {figure}{\numberline {11}{\ignorespaces Phase matrix for different nodes in the testbed for PHASER\xspace  \texttt  {A}.\relax }}{7}}
\newlabel{fig:phasematrix}{{11}{7}}
\citation{4697024}
\citation{Yi:2003:CIA:778415.778429}
\citation{5416826}
\citation{Hu04usingdirectional}
\citation{Nilsson2010}
\citation{prieditis2010santarray}
\citation{1341637}
\citation{4403985}
\citation{SensorDVB:1346454}
\citation{ActiveFSS:6902027}
\citation{Switchedbeam}
\citation{4618697}
\citation{Voigt2013}
\newlabel{fig:adjustment}{{12a}{8}}
\newlabel{sub@fig:adjustment}{{a}{8}}
\newlabel{fig:adjustment-errors}{{12b}{8}}
\newlabel{sub@fig:adjustment-errors}{{b}{8}}
\@writefile{lof}{\contentsline {figure}{\numberline {12}{\ignorespaces A model for phase-shifting directional antennas\relax }}{8}}
\@writefile{toc}{\contentsline {section}{\numberline {IV}Related Work}{8}}
\newlabel{sec:relatedwork}{{IV}{8}}
\@writefile{toc}{\contentsline {section}{\numberline {V}Conclusions}{8}}
\newlabel{sec:conclusions}{{V}{8}}
\bibstyle{IEEEtran}
\bibdata{sigproc}
