\relax 
\citation{Voigt2013}
\@writefile{toc}{\contentsline {section}{\numberline {1}Introduction}{\thepage }}
\newlabel{sec:introduction}{{1}{\thepage }}
\@writefile{toc}{\contentsline {section}{\numberline {2}Hardware Prototype}{\thepage }}
\newlabel{sec:hardware}{{2}{\thepage }}
\@writefile{toc}{\contentsline {subsection}{\numberline {2.1}Digitally Steerable Antennas}{\thepage }}
\citation{Nilsson2010}
\citation{prieditis2010santarray}
\citation{peregrine:pe44820}
\@writefile{lof}{\contentsline {figure}{\numberline {1}{\ignorespaces Theoretical radiation pattern when two antennas have the same signal and phase and are half the wavelength apart.\relax }}{\thepage }}
\providecommand*\caption@xref[2]{\@setref\relax\@undefined{#1}}
\newlabel{fig:radiation8}{{1}{\thepage }}
\@writefile{toc}{\contentsline {subsection}{\numberline {2.2}$PHASER\xspace  $ Design}{\thepage }}
\@writefile{lof}{\contentsline {figure}{\numberline {2}{\ignorespaces Phaser module board and block diagram. The board has Tmote-mini with a MSP430 MCU and CC2420 transceiver, RF signal splitter, phase shifter, low pass filter (LPF) and antenna connectors.\relax }}{\thepage }}
\newlabel{fig:phaser-board}{{2}{\thepage }}
\@writefile{lof}{\contentsline {figure}{\numberline {3}{\ignorespaces Phaser module views from the ground plane, below the board, and mounted on a turntable.\relax }}{\thepage }}
\newlabel{fig:phaser-can}{{3}{\thepage }}
\@writefile{toc}{\contentsline {section}{\numberline {3}Empirical Study}{\thepage }}
\newlabel{sec:study}{{3}{\thepage }}
\@writefile{toc}{\contentsline {subsection}{\numberline {3.1}Methodology}{\thepage }}
\@writefile{toc}{\contentsline {subsection}{\numberline {3.2}Metrics}{\thepage }}
\newlabel{eq:directional-benefit}{{1}{\thepage }}
\newlabel{eq:mean-directional-benefit}{{2}{\thepage }}
\newlabel{eq:spatial-reuse-index}{{3}{\thepage }}
\@writefile{toc}{\contentsline {subsection}{\numberline {3.3}Radiation Pattern Experiments}{\thepage }}
\@writefile{toc}{\contentsline {subsubsection}{\numberline {3.3.1}Radiation Patterns}{\thepage }}
\@writefile{lof}{\contentsline {figure}{\numberline {4}{\ignorespaces Radiation pattern as when the phase of antenna B is held to zero and the phase of antenna A is varied in range 0 -- 255 in steps of 32 measured \emph  {outdoors}.\relax }}{\thepage }}
\newlabel{fig:outdoors}{{4}{\thepage }}
\@writefile{lof}{\contentsline {figure}{\numberline {5}{\ignorespaces Radiation pattern as when the phase of antenna B is held to zero and the phase of antenna A is varied in range 0 -- 255 in steps of 32 measured \emph  {indoors}.\relax }}{\thepage }}
\newlabel{fig:indoors}{{5}{\thepage }}
\@writefile{toc}{\contentsline {subsubsection}{\numberline {3.3.2}Directional Benefit}{\thepage }}
\newlabel{fig:tx-radiation-pattern}{{6a}{\thepage }}
\newlabel{sub@fig:tx-radiation-pattern}{{a}{\thepage }}
\newlabel{fig:directional-benefit-for-node1}{{6b}{\thepage }}
\newlabel{sub@fig:directional-benefit-for-node1}{{b}{\thepage }}
\@writefile{lof}{\contentsline {figure}{\numberline {6}{\ignorespaces Patterns and directional benefit of \texttt  {A+M} as measured by node 1.\relax }}{\thepage }}
\newlabel{fig:directional-benefit-per-node}{{7a}{\thepage }}
\newlabel{sub@fig:directional-benefit-per-node}{{a}{\thepage }}
\newlabel{fig:directional-benefit-long-whip}{{7b}{\thepage }}
\newlabel{sub@fig:directional-benefit-long-whip}{{b}{\thepage }}
\newlabel{fig:directional-benefit-short-whip}{{7c}{\thepage }}
\newlabel{sub@fig:directional-benefit-short-whip}{{c}{\thepage }}
\@writefile{lof}{\contentsline {figure}{\numberline {7}{\ignorespaces The directional benefit depends on the location of the receiver as well as the type of antennas with which PHASER\xspace  motes are equipped.\relax }}{\thepage }}
\newlabel{fig:directional-benefit}{{7}{\thepage }}
\@writefile{toc}{\contentsline {subsubsection}{\numberline {3.3.3}Spatial Reuse}{\thepage }}
\newlabel{fig:interference-benefit-fixed}{{8a}{\thepage }}
\newlabel{sub@fig:interference-benefit-fixed}{{a}{\thepage }}
\newlabel{fig:interference-benefit-receiver}{{8b}{\thepage }}
\newlabel{sub@fig:interference-benefit-receiver}{{b}{\thepage }}
\@writefile{lof}{\contentsline {figure}{\numberline {8}{\ignorespaces Spatial reuse index\relax }}{\thepage }}
\newlabel{fig:spatialresueindex}{{8}{\thepage }}
\newlabel{fig:spatialreuse-per-node}{{9a}{\thepage }}
\newlabel{sub@fig:spatialreuse-per-node}{{a}{\thepage }}
\newlabel{fig:spatialreuse-threshold}{{9b}{\thepage }}
\newlabel{sub@fig:spatialreuse-threshold}{{b}{\thepage }}
\@writefile{lof}{\contentsline {figure}{\numberline {9}{\ignorespaces Spatial reuse index varies with receiver location and decreases linearly with the signal threshold\relax }}{\thepage }}
\newlabel{fig:spatialreuse-long}{{10a}{\thepage }}
\newlabel{sub@fig:spatialreuse-long}{{a}{\thepage }}
\newlabel{fig:spatialreuse-short}{{10b}{\thepage }}
\newlabel{sub@fig:spatialreuse-short}{{b}{\thepage }}
\@writefile{lof}{\contentsline {figure}{\numberline {10}{\ignorespaces Impact of different PHASER\xspace  hardware on spatial reuse index\relax }}{\thepage }}
\newlabel{fig:spatialreuse-hardare}{{10}{\thepage }}
\@writefile{toc}{\contentsline {subsection}{\numberline {3.4}Link Quality Measurements}{\thepage }}
\newlabel{sec:link-quality-measurements}{{3.4}{\thepage }}
\@writefile{toc}{\contentsline {subsubsection}{\numberline {3.4.1}Link Quality}{\thepage }}
\newlabel{fig:prr0}{{11a}{\thepage }}
\newlabel{sub@fig:prr0}{{a}{\thepage }}
\newlabel{fig:rssi0}{{11b}{\thepage }}
\newlabel{sub@fig:rssi0}{{b}{\thepage }}
\newlabel{fig:lqi0}{{11c}{\thepage }}
\newlabel{sub@fig:lqi0}{{c}{\thepage }}
\@writefile{lof}{\contentsline {figure}{\numberline {11}{\ignorespaces The quality of the link from \texttt  {A+L} measured at node 0 using PRR, LQI, and RSSI\relax }}{\thepage }}
\newlabel{fig:linkquality-node0}{{11}{\thepage }}
\newlabel{fig:testbed-rssi}{{12a}{\thepage }}
\newlabel{sub@fig:testbed-rssi}{{a}{\thepage }}
\newlabel{fig:testbed-prr}{{12b}{\thepage }}
\newlabel{sub@fig:testbed-prr}{{b}{\thepage }}
\@writefile{lof}{\contentsline {figure}{\numberline {12}{\ignorespaces The impact of phase configuration changes on links from \texttt  {A+L} to testbed motes\relax }}{\thepage }}
\newlabel{fig:testbed-links}{{12}{\thepage }}
\@writefile{toc}{\contentsline {subsubsection}{\numberline {3.4.2}A Model for Phase-Shifting Antennas}{\thepage }}
\citation{Nilsson2010}
\citation{prieditis2010santarray}
\newlabel{fig:pm0}{{13a}{\thepage }}
\newlabel{sub@fig:pm0}{{a}{\thepage }}
\newlabel{fig:pm1}{{13b}{\thepage }}
\newlabel{sub@fig:pm1}{{b}{\thepage }}
\newlabel{fig:pm7}{{13c}{\thepage }}
\newlabel{sub@fig:pm7}{{c}{\thepage }}
\@writefile{lof}{\contentsline {figure}{\numberline {13}{\ignorespaces The phase matrix for different nodes in the testbed for \texttt  {A+L}.\relax }}{\thepage }}
\newlabel{fig:phasematrix}{{13}{\thepage }}
\newlabel{fig:adjustment}{{14a}{\thepage }}
\newlabel{sub@fig:adjustment}{{a}{\thepage }}
\newlabel{fig:adjustment-errors}{{14b}{\thepage }}
\newlabel{sub@fig:adjustment-errors}{{b}{\thepage }}
\@writefile{lof}{\contentsline {figure}{\numberline {14}{\ignorespaces A predictive model for phase-shifting directional antennas\relax }}{\thepage }}
\@writefile{toc}{\contentsline {section}{\numberline {4}Discussion}{\thepage }}
\newlabel{sec:discussion}{{4}{\thepage }}
\citation{4697024}
\citation{Yi:2003:CIA:778415.778429}
\citation{5416826}
\citation{Hu04usingdirectional}
\citation{Nilsson2010}
\citation{prieditis2010santarray}
\citation{1341637}
\citation{4403985}
\citation{SensorDVB:1346454}
\citation{ActiveFSS:6902027}
\citation{Switchedbeam}
\citation{4618697}
\citation{Voigt2013}
\@writefile{toc}{\contentsline {section}{\numberline {5}Related Work}{\thepage }}
\newlabel{sec:relatedwork}{{5}{\thepage }}
\@writefile{toc}{\contentsline {section}{\numberline {6}Conclusions}{\thepage }}
\newlabel{sec:conclusions}{{6}{\thepage }}
\bibstyle{abbrv}
\bibdata{sigproc}
\bibcite{Switchedbeam}{1}
\bibcite{5416826}{2}
\bibcite{4403985}{3}
\bibcite{Hu04usingdirectional}{4}
\bibcite{4618697}{5}
\bibcite{SensorDVB:1346454}{6}
\bibcite{ActiveFSS:6902027}{7}
\bibcite{Nilsson2010}{8}
\bibcite{peregrine:pe44820}{9}
\bibcite{prieditis2010santarray}{10}
\bibcite{4697024}{11}
\bibcite{Voigt2013}{12}
\bibcite{Yi:2003:CIA:778415.778429}{13}
\bibcite{1341637}{14}
\@writefile{toc}{\contentsline {section}{\numberline {7}References}{\thepage }}
